{
    "images": [{"src": "/media/images/aabmpy.jpg", "category": "lq", "seal_id": 2}, {"src": "/media/images/aadepf.jpg", "category": "lq", "seal_id": 1}, {"src": "/media/images/aahlgi.jpg", "category": "lq", "seal_id": 3}, {"src": "/media/images/aalwhj.jpg", "category": "lq", "seal_id": 4}, {"src": "/media/images/aatzkq.jpg", "category": "lq", "seal_id": 1}, {"src": "/media/images/aavhli.jpg", "category": "lq", "seal_id": 1}, {"src": "/media/images/abelyk.jpg", "category": "lq", "seal_id": 3}, {"src": "/media/images/abepmm.jpg", "category": "lq", "seal_id": 2}, {"src": "/media/images/abflmt.jpg", "category": "lq", "seal_id": 2}, {"src": "/media/images/abkijm.jpg", "category": "lq", "seal_id": 3}, {"src": "/media/images/abrqfb.jpg", "category": "lq", "seal_id": 2}, {"src": "/media/images/acbeza.jpg", "category": "lq", "seal_id": 4}, {"src": "/media/images/acrgfp.jpg", "category": "lq", "seal_id": 2}, {"src": "/media/images/acugrt.jpg", "category": "lq", "seal_id": 1}, {"src": "/media/images/acvviz.jpg", "category": "lq", "seal_id": 4}, {"src": "/media/images/adjrok.jpg", "category": "lq", "seal_id": 1}, {"src": "/media/images/adssxl.jpg", "category": "lq", "seal_id": 3}, {"src": "/media/images/adzuhq.jpg", "category": "lq", "seal_id": 4}, {"src": "/media/images/aebtat.jpg", "category": "lq", "seal_id": 2}, {"src": "/media/images/aekesk.jpg", "category": "lq", "seal_id": 4}, {"src": "/media/images/aespsq.jpg", "category": "lq", "seal_id": 2}, {"src": "/media/images/agghzc.jpg", "category": "lq", "seal_id": 3}, {"src": "/media/images/agjkud.jpg", "category": "lq", "seal_id": 3}, {"src": "/media/images/aglzjt.jpg", "category": "lq", "seal_id": 3}, {"src": "/media/images/agvgho.jpg", "category": "lq", "seal_id": 1}, {"src": "/media/images/agyxwj.jpg", "category": "lq", "seal_id": 3}, {"src": "/media/images/ahjszf.jpg", "category": "lq", "seal_id": 2}, {"src": "/media/images/aijxfn.jpg", "category": "lq", "seal_id": 1}, {"src": "/media/images/ailfdy.jpg", "category": "lq", "seal_id": 2}, {"src": "/media/images/ailhxx.jpg", "category": "lq", "seal_id": 3}, {"src": "/media/images/aacmzp.jpg", "category": "hq", "seal_id": 4}, {"src": "/media/images/aafynb.jpg", "category": "hq", "seal_id": 1}, {"src": "/media/images/aaijmf.jpg", "category": "hq", "seal_id": 3}, {"src": "/media/images/aaoybd.jpg", "category": "hq", "seal_id": 3}, {"src": "/media/images/abadlq.jpg", "category": "hq", "seal_id": 3}, {"src": "/media/images/abdemc.jpg", "category": "hq", "seal_id": 3}, {"src": "/media/images/abzoqt.jpg", "category": "hq", "seal_id": 4}, {"src": "/media/images/abzvlv.jpg", "category": "hq", "seal_id": 4}, {"src": "/media/images/acavzz.jpg", "category": "hq", "seal_id": 3}, {"src": "/media/images/accylq.jpg", "category": "hq", "seal_id": 1}, {"src": "/media/images/ackhig.jpg", "category": "hq", "seal_id": 4}, {"src": "/media/images/acmcpb.jpg", "category": "hq", "seal_id": 1}, {"src": "/media/images/acswlh.jpg", "category": "hq", "seal_id": 3}, {"src": "/media/images/actpvm.jpg", "category": "hq", "seal_id": 4}, {"src": "/media/images/acxgdy.jpg", "category": "hq", "seal_id": 3}, {"src": "/media/images/adcwcm.jpg", "category": "hq", "seal_id": 4}, {"src": "/media/images/adeekp.jpg", "category": "hq", "seal_id": 3}, {"src": "/media/images/adehfa.jpg", "category": "hq", "seal_id": 1}, {"src": "/media/images/adqhha.jpg", "category": "hq", "seal_id": 3}, {"src": "/media/images/adssdp.jpg", "category": "hq", "seal_id": 2}, {"src": "/media/images/advgli.jpg", "category": "hq", "seal_id": 1}, {"src": "/media/images/adzdga.jpg", "category": "hq", "seal_id": 3}, {"src": "/media/images/aedhqi.jpg", "category": "hq", "seal_id": 3}, {"src": "/media/images/aegzqn.jpg", "category": "hq", "seal_id": 1}, {"src": "/media/images/aeihro.jpg", "category": "hq", "seal_id": 4}, {"src": "/media/images/okvagf.jpg", "category": "hq", "seal_id": 3}, {"src": "/media/images/okwbsa.jpg", "category": "hq", "seal_id": 1}, {"src": "/media/images/okzfqn.jpg", "category": "hq", "seal_id": 2}, {"src": "/media/images/olaaok.jpg", "category": "hq", "seal_id": 2}, {"src": "/media/images/oljauy.jpg", "category": "hq", "seal_id": 1}, {"src": "/media/images/IM00000003.JPG", "category": "no", "seal_id": "none"}, {"src": "/media/images/IM000001.JPG", "category": "no", "seal_id": "none"}, {"src": "/media/images/IM000002 (2).JPG", "category": "no", "seal_id": "none"}, {"src": "/media/images/IM000002.JPG", "category": "no", "seal_id": "none"}, {"src": "/media/images/IM000002211.JPG", "category": "no", "seal_id": "none"}, {"src": "/media/images/IM00000233.JPG", "category": "no", "seal_id": "none"}, {"src": "/media/images/IM0000024.JPG", "category": "no", "seal_id": "none"}, {"src": "/media/images/IM000003.JPG", "category": "no", "seal_id": "none"}, {"src": "/media/images/IM0000031.JPG", "category": "no", "seal_id": "none"}, {"src": "/media/images/IM00000311.JPG", "category": "no", "seal_id": "none"}, {"src": "/media/images/IM00000332.JPG", "category": "no", "seal_id": "none"}, {"src": "/media/images/IM000004.JPG", "category": "no", "seal_id": "none"}, {"src": "/media/images/IM000005.JPG", "category": "no", "seal_id": "none"}, {"src": "/media/images/IM000006.JPG", "category": "no", "seal_id": "none"}, {"src": "/media/images/IM000007.JPG", "category": "no", "seal_id": "none"}, {"src": "/media/images/IM000008.JPG", "category": "no", "seal_id": "none"}, {"src": "/media/images/IM000009.JPG", "category": "no", "seal_id": "none"}, {"src": "/media/images/IM000010.JPG", "category": "no", "seal_id": "none"}, {"src": "/media/images/IM000011.JPG", "category": "no", "seal_id": "none"}, {"src": "/media/images/IM000012.JPG", "category": "no", "seal_id": "none"}, {"src": "/media/images/IM000013.JPG", "category": "no", "seal_id": "none"}, {"src": "/media/images/IM000014.JPG", "category": "no", "seal_id": "none"}, {"src": "/media/images/IM000015.JPG", "category": "no", "seal_id": "none"}, {"src": "/media/images/IM000090.JPG", "category": "no", "seal_id": "none"}, {"src": "/media/images/IM000091.JPG", "category": "no", "seal_id": "none"}, {"src": "/media/images/IM000092.JPG", "category": "no", "seal_id": "none"}, {"src": "/media/images/IM000093.JPG", "category": "no", "seal_id": "none"}, {"src": "/media/images/IM000094.JPG", "category": "no", "seal_id": "none"}, {"src": "/media/images/IM000095.JPG", "category": "no", "seal_id": "none"}, {"src": "/media/images/IM000096.JPG", "category": "no", "seal_id": "none"}],
    "database": [{"id": "phs045", "images": [{"src": "/media/images/database/IM000166_muokatta_S.jpg", "id": 0}, {"src": "/media/images/database/IM000200_muokattu_Ok.jpg", "id": 1}, {"src": "/media/images/database/IM000218_muokattu_Vk.jpg", "id": 2}, {"src": "/media/images/database/IM000246_muokattu_Vk.jpg", "id": 3}, {"src": "/media/images/database/Phs048_010615_belly.jpg", "id": 4}, {"src": "/media/images/database/Phs048_010615_R.JPG", "id": 5}, {"src": "/media/images/database/Phs048_010615_R3.JPG", "id": 6}, {"src": "/media/images/database/Phs048_240515_belly1.jpg", "id": 7}, {"src": "/media/images/database/Phs048_240515_L.jpg", "id": 8}, {"src": "/media/images/database/Phs048_240515_R.jpg", "id": 9}]}, {"id": "phs099", "images": [{"src": "/media/images/database/Phs099_220516_belly2.jpg", "id": 10}, {"src": "/media/images/database/Phs099_220516__bellyL.jpg", "id": 11}, {"src": "/media/images/database/Phs099_220516__R2.jpg", "id": 12}]}, {"id": "phs149", "images": [{"src": "/media/images/database/IMAG0390.JPG", "id": 13}, {"src": "/media/images/database/IMAG0487.JPG", "id": 14}, {"src": "/media/images/database/IMAG0767.JPG", "id": 15}, {"src": "/media/images/database/IMAG1357.JPG", "id": 16}]}, {"id": "phs001", "images": [{"src": "/media/images/database/0226aaac-09f0-4e4e-8b88-bdd4728187a4-halfpage.jpg", "id": 17}, {"src": "/media/images/database/3089443b-d79c-4f8a-852b-81e6cb27d6f6-halfpage.jpg", "id": 18}, {"src": "/media/images/database/4133822e-d37f-4674-8137-f90dde06c834-master.jpg", "id": 19}, {"src": "/media/images/database/6ee19418-dabc-4794-a98f-ccbf3f44cf66-master.jpg", "id": 20}, {"src": "/media/images/database/95f6f3ad-a3ca-4c31-b323-742ad138a3c2-master.jpg", "id": 21}, {"src": "/media/images/database/9cd85211-773b-4eec-a682-618168daef95-master.jpg", "id": 22}, {"src": "/media/images/database/d61af726-7e59-4a61-94cd-92622225c7e5-master.jpg", "id": 23}, {"src": "/media/images/database/f1e743e7-274b-4993-b406-ecec937c16e7-master.jpg", "id": 24}]}, {"id": "phs002", "images": [{"src": "/media/images/database/09fc4ddf-9b74-44cc-87db-4dc4e0ff3203-halfpage.jpg", "id": 25}, {"src": "/media/images/database/12ca7cd5-6733-41d1-94c1-d19da3e4171b-halfpage.jpg", "id": 26}, {"src": "/media/images/database/31022448-792a-4ff3-bce8-f5fc15c63711-halfpage.jpg", "id": 27}, {"src": "/media/images/database/4f169f08-0266-4b8f-87f9-de16ae59ab2d-master.jpg", "id": 28}, {"src": "/media/images/database/c5f6c2a6-0043-4f99-942e-eb55a1e90ee0-halfpage.jpg", "id": 29}, {"src": "/media/images/database/fc387feb-8e8c-4106-b2f2-9730097a8c51-halfpage.jpg", "id": 30}]}],
    "tasks":[{
        "taskId": "0",
        "name": "Harmaasaari_080619",
        "date": "10.12.2020",
        "type": "Segmentation",
        "size": "3GB",
        "number": 5478,
        "numberHQ": 134,
        "numberLQ": 3167,
        "numberNo": 2177
    },
    {
        "taskId": "1",
        "name": "Suurvehkosaari_250519",
        "date": "03.09.2019",
        "type": "Identification",
        "size": "1GB",
        "number": 942,
        "numberHQ": 4698,
        "numberLQ": 10231,
        "numberNo": 28013
    }],
    "changeId": [12, 15, 17, 23, 28]
}
